(module turkuhacklab_jack_3.5mm (layer F.Cu) (tedit 6140F3A5)
  (fp_text reference REF** (at 0 0) (layer F.SilkS)
    (effects (font (size 1 1) (thickness 0.15)))
  )
  (fp_text value turkuhacklab_jack_3.5mm (at 0 15.24) (layer F.Fab)
    (effects (font (size 1 1) (thickness 0.15)))
  )
  (fp_line (start -5.75 -2) (end -5.75 12.2) (layer F.SilkS) (width 0.12))
  (fp_line (start 5.75 -2) (end -5.75 -2) (layer F.SilkS) (width 0.12))
  (fp_line (start 5.75 12.2) (end 5.75 -2) (layer F.SilkS) (width 0.12))
  (fp_line (start -5.75 12.2) (end 5.75 12.2) (layer F.SilkS) (width 0.12))
  (pad T thru_hole circle (at 4.5 8.4) (size 2.35 2.35) (drill 1.75) (layers *.Cu *.Mask))
  (pad R thru_hole circle (at -4.5 3.4) (size 2.35 2.35) (drill 1.75) (layers *.Cu *.Mask))
  (pad S thru_hole circle (at 0 0) (size 2.35 2.35) (drill 1.75) (layers *.Cu *.Mask))
)
