EESchema Schematic File Version 4
EELAYER 30 0
EELAYER END
$Descr A4 11693 8268
encoding utf-8
Sheet 1 1
Title ""
Date ""
Rev ""
Comp ""
Comment1 ""
Comment2 ""
Comment3 ""
Comment4 ""
$EndDescr
$Comp
L OPL3:YMF262-M OPL3
U 1 1 6140C7C6
P 3600 2500
F 0 "OPL3" H 3875 2725 50  0000 C CNN
F 1 "YMF262-M" H 3875 2634 50  0000 C CNN
F 2 "Package_SO:SOIC-24W_7.5x15.4mm_P1.27mm" H 3600 2500 50  0001 C CNN
F 3 "" H 3600 2500 50  0001 C CNN
	1    3600 2500
	1    0    0    -1  
$EndComp
$Comp
L OPL3:YAC512-M DAC1
U 1 1 6140D136
P 5550 2500
F 0 "DAC1" H 6050 2725 50  0000 C CNN
F 1 "YAC512-M" H 6050 2634 50  0000 C CNN
F 2 "Package_SO:SOIC-16W_5.3x10.2mm_P1.27mm" H 5950 2600 50  0001 C CNN
F 3 "" H 5950 2600 50  0001 C CNN
	1    5550 2500
	1    0    0    -1  
$EndComp
$Comp
L Amplifier_Operational:TL074 U3
U 1 1 6140FDE7
P 7750 1900
F 0 "U3" H 7750 2267 50  0000 C CNN
F 1 "TL074" H 7750 2176 50  0000 C CNN
F 2 "Package_DIP:DIP-14_W7.62mm" H 7700 2000 50  0001 C CNN
F 3 "http://www.ti.com/lit/ds/symlink/tl071.pdf" H 7800 2100 50  0001 C CNN
	1    7750 1900
	1    0    0    -1  
$EndComp
$Comp
L Amplifier_Operational:TL074 U3
U 2 1 61410BC3
P 7750 2600
F 0 "U3" H 7750 2967 50  0000 C CNN
F 1 "TL074" H 7750 2876 50  0000 C CNN
F 2 "Package_DIP:DIP-14_W7.62mm" H 7700 2700 50  0001 C CNN
F 3 "http://www.ti.com/lit/ds/symlink/tl071.pdf" H 7800 2800 50  0001 C CNN
	2    7750 2600
	1    0    0    -1  
$EndComp
$Comp
L Amplifier_Operational:TL074 U3
U 3 1 61411983
P 7750 3350
F 0 "U3" H 7750 3717 50  0000 C CNN
F 1 "TL074" H 7750 3626 50  0000 C CNN
F 2 "Package_DIP:DIP-14_W7.62mm" H 7700 3450 50  0001 C CNN
F 3 "http://www.ti.com/lit/ds/symlink/tl071.pdf" H 7800 3550 50  0001 C CNN
	3    7750 3350
	1    0    0    -1  
$EndComp
$Comp
L Amplifier_Operational:TL074 U3
U 4 1 6141288D
P 7750 4050
F 0 "U3" H 7750 4417 50  0000 C CNN
F 1 "TL074" H 7750 4326 50  0000 C CNN
F 2 "Package_DIP:DIP-14_W7.62mm" H 7700 4150 50  0001 C CNN
F 3 "http://www.ti.com/lit/ds/symlink/tl071.pdf" H 7800 4250 50  0001 C CNN
	4    7750 4050
	1    0    0    -1  
$EndComp
$Comp
L Amplifier_Operational:TL074 U3
U 5 1 614137F5
P 8750 2350
F 0 "U3" H 8708 2396 50  0000 L CNN
F 1 "TL074" H 8708 2305 50  0000 L CNN
F 2 "Package_DIP:DIP-14_W7.62mm" H 8700 2450 50  0001 C CNN
F 3 "http://www.ti.com/lit/ds/symlink/tl071.pdf" H 8800 2550 50  0001 C CNN
	5    8750 2350
	1    0    0    -1  
$EndComp
$Comp
L Connector_Generic:Conn_01x08 DATA1
U 1 1 614197BE
P 3800 4550
F 0 "DATA1" V 3672 4062 50  0000 R CNN
F 1 "Conn_01x08" V 3763 4062 50  0000 R CNN
F 2 "Connector_PinHeader_2.54mm:PinHeader_1x08_P2.54mm_Vertical" H 3800 4550 50  0001 C CNN
F 3 "~" H 3800 4550 50  0001 C CNN
	1    3800 4550
	0    -1   1    0   
$EndComp
$Comp
L Connector_Generic:Conn_01x02 POWER1
U 1 1 6141B540
P 1800 1600
F 0 "POWER1" H 1718 1275 50  0000 C CNN
F 1 "Conn_01x02" H 1718 1366 50  0000 C CNN
F 2 "Connector_PinHeader_2.54mm:PinHeader_1x02_P2.54mm_Vertical" H 1800 1600 50  0001 C CNN
F 3 "~" H 1800 1600 50  0001 C CNN
	1    1800 1600
	-1   0    0    1   
$EndComp
$Comp
L Connector_Generic:Conn_01x06 CONTROL1
U 1 1 614286A6
P 2500 3000
F 0 "CONTROL1" H 2418 2475 50  0000 C CNN
F 1 "Conn_01x06" H 2418 2566 50  0000 C CNN
F 2 "Connector_PinHeader_2.54mm:PinHeader_1x06_P2.54mm_Vertical" H 2500 3000 50  0001 C CNN
F 3 "~" H 2500 3000 50  0001 C CNN
	1    2500 3000
	-1   0    0    1   
$EndComp
Wire Wire Line
	3400 3400 3250 3400
Wire Wire Line
	3250 3400 3250 4000
Wire Wire Line
	3250 4000 3500 4000
Wire Wire Line
	3500 4000 3500 4350
Wire Wire Line
	3400 3500 3300 3500
Wire Wire Line
	3300 3500 3300 3950
Wire Wire Line
	3300 3950 3600 3950
Wire Wire Line
	3600 3950 3600 4350
$Comp
L power:GND #PWR04
U 1 1 6145B405
P 3400 3600
F 0 "#PWR04" H 3400 3350 50  0001 C CNN
F 1 "GND" H 3405 3427 50  0000 C CNN
F 2 "" H 3400 3600 50  0001 C CNN
F 3 "" H 3400 3600 50  0001 C CNN
	1    3400 3600
	1    0    0    -1  
$EndComp
Wire Wire Line
	4350 3600 4350 3950
Wire Wire Line
	4350 3950 3700 3950
Wire Wire Line
	3700 3950 3700 4350
Wire Wire Line
	4350 3500 4400 3500
Wire Wire Line
	4400 3500 4400 4000
Wire Wire Line
	4400 4000 3800 4000
Wire Wire Line
	3800 4000 3800 4350
Wire Wire Line
	4350 3400 4450 3400
Wire Wire Line
	4450 3400 4450 4050
Wire Wire Line
	4450 4050 3900 4050
Wire Wire Line
	3900 4050 3900 4350
Wire Wire Line
	4350 3300 4500 3300
Wire Wire Line
	4500 3300 4500 4100
Wire Wire Line
	4500 4100 4000 4100
Wire Wire Line
	4000 4100 4000 4350
Wire Wire Line
	4350 3200 4550 3200
Wire Wire Line
	4550 3200 4550 4150
Wire Wire Line
	4550 4150 4100 4150
Wire Wire Line
	4100 4150 4100 4350
Wire Wire Line
	4350 3100 4600 3100
Wire Wire Line
	4600 3100 4600 4200
Wire Wire Line
	4600 4200 4200 4200
Wire Wire Line
	4200 4200 4200 4350
Wire Wire Line
	3400 2700 2700 2700
Wire Wire Line
	3400 2800 2700 2800
Wire Wire Line
	3400 2900 2700 2900
Wire Wire Line
	3400 3000 2700 3000
Wire Wire Line
	3400 3100 2700 3100
Wire Wire Line
	3400 3200 2700 3200
$Comp
L power:+5V #PWR08
U 1 1 614758F4
P 5450 2400
F 0 "#PWR08" H 5450 2250 50  0001 C CNN
F 1 "+5V" H 5465 2573 50  0000 C CNN
F 2 "" H 5450 2400 50  0001 C CNN
F 3 "" H 5450 2400 50  0001 C CNN
	1    5450 2400
	1    0    0    -1  
$EndComp
$Comp
L power:GND #PWR07
U 1 1 6147726F
P 5250 2400
F 0 "#PWR07" H 5250 2150 50  0001 C CNN
F 1 "GND" H 5255 2227 50  0000 C CNN
F 2 "" H 5250 2400 50  0001 C CNN
F 3 "" H 5250 2400 50  0001 C CNN
	1    5250 2400
	-1   0    0    1   
$EndComp
$Comp
L power:GND #PWR016
U 1 1 61477F17
P 8650 2650
F 0 "#PWR016" H 8650 2400 50  0001 C CNN
F 1 "GND" H 8655 2477 50  0000 C CNN
F 2 "" H 8650 2650 50  0001 C CNN
F 3 "" H 8650 2650 50  0001 C CNN
	1    8650 2650
	1    0    0    -1  
$EndComp
$Comp
L power:+5V #PWR015
U 1 1 6147A3C5
P 8650 2050
F 0 "#PWR015" H 8650 1900 50  0001 C CNN
F 1 "+5V" H 8665 2223 50  0000 C CNN
F 2 "" H 8650 2050 50  0001 C CNN
F 3 "" H 8650 2050 50  0001 C CNN
	1    8650 2050
	1    0    0    -1  
$EndComp
Wire Wire Line
	5550 2500 5450 2500
Wire Wire Line
	5450 2500 5450 2400
Wire Wire Line
	5550 2700 5450 2700
Wire Wire Line
	5450 2700 5450 2500
Connection ~ 5450 2500
Wire Wire Line
	5550 2600 5250 2600
Wire Wire Line
	5250 2600 5250 2400
Wire Wire Line
	4350 2800 5550 2800
$Comp
L power:+5V #PWR03
U 1 1 61484442
P 3300 2400
F 0 "#PWR03" H 3300 2250 50  0001 C CNN
F 1 "+5V" H 3315 2573 50  0000 C CNN
F 2 "" H 3300 2400 50  0001 C CNN
F 3 "" H 3300 2400 50  0001 C CNN
	1    3300 2400
	1    0    0    -1  
$EndComp
Wire Wire Line
	3300 2400 3300 2500
Wire Wire Line
	3300 2500 3400 2500
Wire Wire Line
	4350 2600 5150 2600
Wire Wire Line
	5150 2600 5150 2900
Wire Wire Line
	5150 2900 5550 2900
Wire Wire Line
	4350 2900 5050 2900
Wire Wire Line
	5050 2900 5050 3100
Wire Wire Line
	5050 3100 5550 3100
Wire Wire Line
	4350 3000 5000 3000
Wire Wire Line
	5000 3000 5000 3200
Wire Wire Line
	5000 3200 5550 3200
Wire Wire Line
	5550 3000 5450 3000
Wire Wire Line
	5450 3000 5450 2700
Connection ~ 5450 2700
$Comp
L power:+5V #PWR09
U 1 1 6148B181
P 6550 3200
F 0 "#PWR09" H 6550 3050 50  0001 C CNN
F 1 "+5V" H 6565 3373 50  0000 C CNN
F 2 "" H 6550 3200 50  0001 C CNN
F 3 "" H 6550 3200 50  0001 C CNN
	1    6550 3200
	-1   0    0    1   
$EndComp
Wire Wire Line
	8050 1900 8050 2150
$Comp
L Device:CP_Small C1
U 1 1 614CD15A
P 6800 1700
F 0 "C1" H 6712 1654 50  0000 R CNN
F 1 "10 uF" H 6712 1745 50  0000 R CNN
F 2 "Capacitor_SMD:C_1206_3216Metric_Pad1.33x1.80mm_HandSolder" H 6800 1700 50  0001 C CNN
F 3 "~" H 6800 1700 50  0001 C CNN
	1    6800 1700
	-1   0    0    1   
$EndComp
$Comp
L Device:R_Small R1
U 1 1 614CE6A2
P 6750 2900
F 0 "R1" V 6554 2900 50  0000 C CNN
F 1 "33" V 6645 2900 50  0000 C CNN
F 2 "Resistor_THT:R_Axial_DIN0207_L6.3mm_D2.5mm_P2.54mm_Vertical" H 6750 2900 50  0001 C CNN
F 3 "~" H 6750 2900 50  0001 C CNN
	1    6750 2900
	0    1    1    0   
$EndComp
Wire Wire Line
	6550 2500 6550 1800
Wire Wire Line
	6550 1800 6800 1800
$Comp
L power:GND #PWR010
U 1 1 614DB874
P 6800 1600
F 0 "#PWR010" H 6800 1350 50  0001 C CNN
F 1 "GND" H 6805 1427 50  0000 C CNN
F 2 "" H 6800 1600 50  0001 C CNN
F 3 "" H 6800 1600 50  0001 C CNN
	1    6800 1600
	-1   0    0    1   
$EndComp
Wire Wire Line
	6550 2900 6650 2900
Wire Wire Line
	8050 2900 8050 2600
Wire Wire Line
	6550 2700 6700 2700
Wire Wire Line
	6700 2700 6700 2150
$Comp
L Device:C_Small C4
U 1 1 614E7C54
P 7000 2600
F 0 "C4" H 7092 2646 50  0000 L CNN
F 1 "68 pF" H 7092 2555 50  0000 L CNN
F 2 "Capacitor_SMD:C_0805_2012Metric_Pad1.18x1.45mm_HandSolder" H 7000 2600 50  0001 C CNN
F 3 "~" H 7000 2600 50  0001 C CNN
	1    7000 2600
	1    0    0    -1  
$EndComp
$Comp
L Device:C_Small C2
U 1 1 614E8EEB
P 6900 3100
F 0 "C2" H 6992 3146 50  0000 L CNN
F 1 "2.7 nF" H 6992 3055 50  0000 L CNN
F 2 "Capacitor_SMD:C_1206_3216Metric_Pad1.33x1.80mm_HandSolder" H 6900 3100 50  0001 C CNN
F 3 "~" H 6900 3100 50  0001 C CNN
	1    6900 3100
	1    0    0    -1  
$EndComp
$Comp
L Device:C_Small C3
U 1 1 614E984F
P 6900 4050
F 0 "C3" H 6992 4096 50  0000 L CNN
F 1 "2.7 nF" H 6992 4005 50  0000 L CNN
F 2 "Capacitor_SMD:C_1206_3216Metric_Pad1.33x1.80mm_HandSolder" H 6900 4050 50  0001 C CNN
F 3 "~" H 6900 4050 50  0001 C CNN
	1    6900 4050
	1    0    0    -1  
$EndComp
Wire Wire Line
	6550 3000 6900 3000
Connection ~ 6900 3000
Wire Wire Line
	6550 3100 6750 3100
Wire Wire Line
	6750 3950 6900 3950
Wire Wire Line
	7450 3450 7450 3600
Wire Wire Line
	7450 3600 8050 3600
Wire Wire Line
	8050 3600 8050 3350
Wire Wire Line
	7450 4150 7450 4300
Wire Wire Line
	7450 4300 8050 4300
Wire Wire Line
	8050 4300 8050 4050
Wire Wire Line
	7450 3000 7450 3250
Wire Wire Line
	6900 3000 7450 3000
Wire Wire Line
	6750 3100 6750 3950
Wire Wire Line
	6900 3950 7450 3950
Connection ~ 6900 3950
$Comp
L power:GND #PWR011
U 1 1 61517D38
P 6900 3200
F 0 "#PWR011" H 6900 2950 50  0001 C CNN
F 1 "GND" H 6905 3027 50  0000 C CNN
F 2 "" H 6900 3200 50  0001 C CNN
F 3 "" H 6900 3200 50  0001 C CNN
	1    6900 3200
	1    0    0    -1  
$EndComp
$Comp
L power:GND #PWR012
U 1 1 615189E6
P 6900 4150
F 0 "#PWR012" H 6900 3900 50  0001 C CNN
F 1 "GND" H 6905 3977 50  0000 C CNN
F 2 "" H 6900 4150 50  0001 C CNN
F 3 "" H 6900 4150 50  0001 C CNN
	1    6900 4150
	1    0    0    -1  
$EndComp
Wire Wire Line
	7450 2000 7450 2150
Connection ~ 7450 2150
Wire Wire Line
	7450 2150 8050 2150
Wire Wire Line
	7450 2700 7450 2900
Connection ~ 7450 2900
Wire Wire Line
	7450 2900 8050 2900
Wire Wire Line
	6700 2150 7450 2150
Wire Wire Line
	6850 2900 7450 2900
Wire Wire Line
	6550 2800 6900 2800
Wire Wire Line
	6900 2800 6900 2500
Wire Wire Line
	6900 2500 7000 2500
Connection ~ 7000 2500
Wire Wire Line
	7000 2500 7450 2500
$Comp
L power:GND #PWR013
U 1 1 615347A6
P 7000 2700
F 0 "#PWR013" H 7000 2450 50  0001 C CNN
F 1 "GND" H 7005 2527 50  0000 C CNN
F 2 "" H 7000 2700 50  0001 C CNN
F 3 "" H 7000 2700 50  0001 C CNN
	1    7000 2700
	1    0    0    -1  
$EndComp
Wire Wire Line
	6800 1800 7450 1800
Connection ~ 6800 1800
$Comp
L Oscillator:DGOF5S3 X1
U 1 1 61539818
P 4050 1350
F 0 "X1" H 3706 1396 50  0000 R CNN
F 1 "DGOF5S3" H 3706 1305 50  0000 R CNN
F 2 "Oscillator:Oscillator_DIP-14" H 4500 1000 50  0001 C CNN
F 3 "http://www.conwin.com/datasheets/cx/cx030.pdf" H 3950 1350 50  0001 C CNN
	1    4050 1350
	1    0    0    -1  
$EndComp
$Comp
L power:+5V #PWR05
U 1 1 6153A9D7
P 4050 1050
F 0 "#PWR05" H 4050 900 50  0001 C CNN
F 1 "+5V" H 4065 1223 50  0000 C CNN
F 2 "" H 4050 1050 50  0001 C CNN
F 3 "" H 4050 1050 50  0001 C CNN
	1    4050 1050
	1    0    0    -1  
$EndComp
$Comp
L power:GND #PWR06
U 1 1 6153C1A2
P 4050 1650
F 0 "#PWR06" H 4050 1400 50  0001 C CNN
F 1 "GND" H 4055 1477 50  0000 C CNN
F 2 "" H 4050 1650 50  0001 C CNN
F 3 "" H 4050 1650 50  0001 C CNN
	1    4050 1650
	1    0    0    -1  
$EndComp
Wire Wire Line
	4350 1350 4350 2500
$Comp
L Connector:AudioJack3 J4
U 1 1 615435A6
P 9750 3700
F 0 "J4" H 9470 3633 50  0000 R CNN
F 1 "AudioJack3" H 9470 3724 50  0000 R CNN
F 2 "soundblaster:turkuhacklab_jack_3.5mm" H 9750 3700 50  0001 C CNN
F 3 "~" H 9750 3700 50  0001 C CNN
	1    9750 3700
	-1   0    0    1   
$EndComp
$Comp
L power:GND #PWR018
U 1 1 61544C86
P 9550 3800
F 0 "#PWR018" H 9550 3550 50  0001 C CNN
F 1 "GND" H 9555 3627 50  0000 C CNN
F 2 "" H 9550 3800 50  0001 C CNN
F 3 "" H 9550 3800 50  0001 C CNN
	1    9550 3800
	1    0    0    -1  
$EndComp
$Comp
L Device:R_Small R2
U 1 1 61545A82
P 8850 3950
F 0 "R2" H 8909 3996 50  0000 L CNN
F 1 "100k" H 8909 3905 50  0000 L CNN
F 2 "Resistor_THT:R_Axial_DIN0207_L6.3mm_D2.5mm_P2.54mm_Vertical" H 8850 3950 50  0001 C CNN
F 3 "~" H 8850 3950 50  0001 C CNN
	1    8850 3950
	1    0    0    -1  
$EndComp
$Comp
L Device:R_Small R3
U 1 1 61546BEE
P 9150 3950
F 0 "R3" H 9209 3996 50  0000 L CNN
F 1 "100k" H 9209 3905 50  0000 L CNN
F 2 "Resistor_THT:R_Axial_DIN0207_L6.3mm_D2.5mm_P2.54mm_Vertical" H 9150 3950 50  0001 C CNN
F 3 "~" H 9150 3950 50  0001 C CNN
	1    9150 3950
	1    0    0    -1  
$EndComp
$Comp
L power:GND #PWR014
U 1 1 61547B91
P 8850 4050
F 0 "#PWR014" H 8850 3800 50  0001 C CNN
F 1 "GND" H 8855 3877 50  0000 C CNN
F 2 "" H 8850 4050 50  0001 C CNN
F 3 "" H 8850 4050 50  0001 C CNN
	1    8850 4050
	1    0    0    -1  
$EndComp
$Comp
L power:GND #PWR017
U 1 1 6154858F
P 9150 4050
F 0 "#PWR017" H 9150 3800 50  0001 C CNN
F 1 "GND" H 9155 3877 50  0000 C CNN
F 2 "" H 9150 4050 50  0001 C CNN
F 3 "" H 9150 4050 50  0001 C CNN
	1    9150 4050
	1    0    0    -1  
$EndComp
Wire Wire Line
	8050 4050 8050 3700
Connection ~ 8050 4050
Wire Wire Line
	8850 3600 8850 3850
Wire Wire Line
	9150 3700 9150 3850
$Comp
L Device:CP_Small C5
U 1 1 615AA1FD
P 8350 3600
F 0 "C5" V 8575 3600 50  0000 C CNN
F 1 "220 uF" V 8484 3600 50  0000 C CNN
F 2 "Capacitor_THT:CP_Radial_D10.0mm_P5.00mm" H 8350 3600 50  0001 C CNN
F 3 "~" H 8350 3600 50  0001 C CNN
	1    8350 3600
	0    -1   -1   0   
$EndComp
$Comp
L Device:CP_Small C6
U 1 1 615AB6A3
P 8550 3700
F 0 "C6" V 8775 3700 50  0000 C CNN
F 1 "220 uF" V 8684 3700 50  0000 C CNN
F 2 "Capacitor_THT:CP_Radial_D10.0mm_P5.00mm" H 8550 3700 50  0001 C CNN
F 3 "~" H 8550 3700 50  0001 C CNN
	1    8550 3700
	0    -1   -1   0   
$EndComp
Wire Wire Line
	8050 3600 8250 3600
Connection ~ 8050 3600
Wire Wire Line
	8450 3600 8850 3600
Connection ~ 8850 3600
Wire Wire Line
	8850 3600 9550 3600
Wire Wire Line
	8050 3700 8450 3700
Wire Wire Line
	8650 3700 9150 3700
Connection ~ 9150 3700
Wire Wire Line
	9150 3700 9550 3700
Wire Wire Line
	2000 1350 2000 1500
$Comp
L power:+5V #PWR01
U 1 1 6143C14A
P 2000 1350
F 0 "#PWR01" H 2000 1200 50  0001 C CNN
F 1 "+5V" H 2015 1523 50  0000 C CNN
F 2 "" H 2000 1350 50  0001 C CNN
F 3 "" H 2000 1350 50  0001 C CNN
	1    2000 1350
	1    0    0    -1  
$EndComp
Wire Wire Line
	2000 1750 2000 1600
$Comp
L power:GND #PWR02
U 1 1 6143E517
P 2000 1750
F 0 "#PWR02" H 2000 1500 50  0001 C CNN
F 1 "GND" H 2005 1577 50  0000 C CNN
F 2 "" H 2000 1750 50  0001 C CNN
F 3 "" H 2000 1750 50  0001 C CNN
	1    2000 1750
	1    0    0    -1  
$EndComp
$EndSCHEMATC
